﻿  Source.cpp
Source.obj : error LNK2005: "char * * typeStr" (?typeStr@@3PAPEADA) уже определен в Monetary.obj
c:\users\руслан\documents\visual studio 2015\Projects\ConsoleApplication1\x64\Debug\ConsoleApplication1.exe : fatal error LNK1169: обнаружен многократно определенный символ - один или более
